Model Interpretability
…
ALE

LIME

R txbk

a = a %>%
  select_if(is.numeric) %>% 
  relocate(Sale_Price)

lm = lm(Sale_Price ~ . , data = a)
lm %>% tidy

## # A tibble: 35 x 5
##    term                estimate    std.error statistic  p.value
##    <chr>                  <dbl>        <dbl>     <dbl>    <dbl>
##  1 (Intercept)    -11429773.    3528553.        -3.24  1.21e- 3
##  2 Lot_Frontage          87.4        21.0        4.16  3.26e- 5
##  3 Lot_Area               0.314       0.0930     3.38  7.37e- 4
##  4 Year_Built           385.         39.2        9.82  1.99e-22
##  5 Year_Remod_Add       513.         43.8       11.7   4.92e-31
##  6 Mas_Vnr_Area          37.9         4.39       8.64  9.12e-18
##  7 BsmtFin_SF_1         300.        397.         0.756 4.50e- 1
##  8 BsmtFin_SF_2         -13.4         4.21      -3.18  1.51e- 3
##  9 Bsmt_Unf_SF          -13.4         2.67      -5.01  5.64e- 7
## 10 Total_Bsmt_SF         37.6         3.30      11.4   1.69e-29
## # ... with 25 more rows
…
a %>% dlookr::correlate() %>% filter(coef_corr > 0.5 | coef_corr < -0.5) %>% arrange(-coef_corr)

## Registered S3 method overwritten by 'quantmod':
##   method            from
##   as.zoo.data.frame zoo

## # A tibble: 46 x 3
##    var1          var2          coef_corr
##    <fct>         <fct>             <dbl>
##  1 Garage_Area   Garage_Cars       0.890
##  2 Garage_Cars   Garage_Area       0.890
##  3 TotRms_AbvGrd Gr_Liv_Area       0.808
##  4 Gr_Liv_Area   TotRms_AbvGrd     0.808
##  5 First_Flr_SF  Total_Bsmt_SF     0.800
##  6 Total_Bsmt_SF First_Flr_SF      0.800
##  7 Gr_Liv_Area   Sale_Price        0.707
##  8 Sale_Price    Gr_Liv_Area       0.707
##  9 TotRms_AbvGrd Bedroom_AbvGr     0.673
## 10 Bedroom_AbvGr TotRms_AbvGrd     0.673
## # ... with 36 more rows
…
