Supervised ML | Type: Numeric Response
…
#'Using the recipe, prepare & juice the train ds'
juiced.train = recipe %>% prep(retain=TRUE ) %>% juice
#'Using the recipe, prepare & bake the test ds'
baked.test = recipe %>% prep(retain=TRUE ) %>% bake(test)

juiced.train %>% head() %>% DT::datatable()

baked.test %>% head %>% DT::datatable()

sanity check for missing data

miss_var_summary(juiced.train)

## # A tibble: 73 x 3
##    variable       n_miss pct_miss
##    <chr>           <int>    <dbl>
##  1 alley               0        0
##  2 bldg_type           0        0
##  3 bsmt_cond           0        0
##  4 bsmt_exposure       0        0
##  5 bsmt_fin_type1      0        0
##  6 bsmt_fin_type2      0        0
##  7 bsmt_qual           0        0
##  8 central_air         0        0
##  9 condition1          0        0
## 10 condition2          0        0
## # ... with 63 more rows

miss_var_summary(baked.test)

## # A tibble: 73 x 3
##    variable       n_miss pct_miss
##    <chr>           <int>    <dbl>
##  1 alley               0        0
##  2 bldg_type           0        0
##  3 bsmt_cond           0        0
##  4 bsmt_exposure       0        0
##  5 bsmt_fin_type1      0        0
##  6 bsmt_fin_type2      0        0
##  7 bsmt_qual           0        0
##  8 central_air         0        0
##  9 condition1          0        0
## 10 condition2          0        0
## # ... with 63 more rows
…
